<svg xmlns="http://www.w3.org/2000/svg" width="16" height="16" fill="none">
  <path
    d="M.94 0a.94.94 0 0 0-.665.275.94.94 0 0 0 0 1.33L6.67 8 .275 14.395a.94.94 0 0 0 0 1.33.94.94 0 0 0 1.33 0L8 9.33l6.395 6.395a.94.94 0 0 0 1.33 0 .94.94 0 0 0 0-1.33L9.33 8l6.395-6.395a.94.94 0 0 0 0-1.33A.94.94 0 0 0 15.06 0a.94.94 0 0 0-.666.275L8 6.67 1.605.275A.94.94 0 0 0 .94 0z"
    fill="currentColor" />
</svg>