<svg xmlns="http://www.w3.org/2000/svg" width="20" height="20" fill="none" viewBox="0 0 0.6 0.6">
   <path fill="currentColor" fill-rule="evenodd"
      d="M.207.039a.03.03 0 0 1 0 .042L.14.15h.227a.21.21 0 1 1 0 .42H.191a.03.03 0 1 1 0-.06h.175a.15.15 0 1 0 0-.3H.14l.068.069A.03.03 0 0 1 .165.32L.024.18.165.039a.03.03 0 0 1 .042 0z"
      clip-rule="evenodd" style="stroke-width:.03" />
</svg>